…
    ## ── Conflicts ──────────────────────────────── tidyverse_conflicts() ──
    ## ✖ dplyr::filter() masks stats::filter()
    ## ✖ dplyr::lag()    masks stats::lag()

``` r
ipt <- ipt %>% tbl_df()

ipt %>% count(Version)
```

    ## # A tibble: 222 x 2
    ##    Version     n
    ##    <chr>   <int>
    ##  1 0.0-2       7
    ##  2 0.0-3       5
    ##  3 0.0-4       2
    ##  4 0.0-7       1
    ##  5 0.0.2       1
    ##  6 0.1         1
    ##  7 0.1-16      1
    ##  8 0.1-20      1
    ##  9 0.1-3       1
    ## 10 0.1-5       1
    ## # … with 212 more rows
